module creator

go 1.19

require github.com/gorilla/mux v1.8.0

require (
	github.com/Alena557miles/webservergo v0.0.0-20221205075602-bee05d5cb5e5 // indirect
	github.com/cespare/xxhash/v2 v2.2.0 // indirect
	github.com/dgryski/go-rendezvous v0.0.0-20200823014737-9f7001d12a5f // indirect
	github.com/go-sql-driver/mysql v1.7.0 // indirect
	github.com/joho/godotenv v1.5.1 // indirect
	github.com/redis/go-redis/v9 v9.0.2 // indirect
	go.uber.org/atomic v1.10.0 // indirect
	go.uber.org/multierr v1.9.0 // indirect
	go.uber.org/zap v1.24.0 // indirect
)
